{
    "$schema": "http://json-schema.org/draft-07/schema#",
    "id": "./palette.json#",
    "type": "object",
    "properties": {
        "palette": {
            "type": "object",
            "patternProperties": {
                "^.*$": {
                    "type": "string",
                    "format": "color-hex",
                    "defaultSnippets": [
                        {
                            "body": "${1:#ff0000}"
                        }
                    ]
                }
            }
        },
        "colors": {
            "anyOf": [
                {
                    "description": "Colors in the workbench",
                    "$ref": "vscode://schemas/workbench-colors"
                },
                {
                    "type": "string",
                    "pattern": "^\\$\\{\\w+\\}$"
                }
            ]
        },
        "tokenColors": {
            "anyOf": [
                {
                    "type": "string",
                    "description": "Path to a tmTheme file (relative to the current file)."
                },
                {
                    "description": "Colors for syntax highlighting",
                    "$ref": "vscode://schemas/textmate-colors"
                }
            ]
        },
        "semanticHighlighting": {
            "type": "boolean",
            "description": "Whether semantic highlighting should be enabled for this theme."
        },
        "semanticTokenColors": {
            "type": "object",
            "description": "Colors for semantic tokens",
            "$ref": "vscode://schemas/token-styling",
        }
    }
}